A Study on A Home Team's Performance Relative to the Importance of Their Game
…
adj_score1
The number of goals scored by the home team, adjusted for game state.

adj_score2
The number of goals scored by the away team, adjusted for game state.

Loading the data

library(dplyr)
library(tidyverse)
library(ggplot2)
Data <- read_csv("Data/spi_matches.csv")
Data

# A tibble: 68,913 × 23
   season date       league_id league    team1 team2  spi1  spi2 prob1
    <dbl> <date>         <dbl> <chr>     <chr> <chr> <dbl> <dbl> <dbl>
 1   2016 2016-07-09      7921 FA Women… Live… Read…  51.6  50.4 0.439
 2   2016 2016-07-10      7921 FA Women… Arse… Nott…  46.6  54.0 0.357
 3   2016 2016-07-10      7921 FA Women… Chel… Birm…  59.8  54.6 0.480
 4   2016 2016-07-16      7921 FA Women… Live… Nott…  53    52.4 0.429
 5   2016 2016-07-17      7921 FA Women… Chel… Arse…  59.4  61.0 0.412
 6   2016 2016-07-24      7921 FA Women… Read… Birm…  50.8  55.0 0.382
 7   2016 2016-07-24      7921 FA Women… Nott… Manc…  48.1  60.2 0.308
 8   2016 2016-07-31      7921 FA Women… Read… Nott…  50.6  52.6 0.407
 9   2016 2016-07-31      7921 FA Women… Arse… Live…  48.3  48.5 0.435
10   2016 2016-08-03      7921 FA Women… Read… Manc…  50.4  63.2 0.306
# ℹ 68,903 more rows
# ℹ 14 more variables: prob2 <dbl>, probtie <dbl>, proj_score1 <dbl>,
#   proj_score2 <dbl>, importance1 <dbl>, importance2 <dbl>,
#   score1 <dbl>, score2 <dbl>, xg1 <dbl>, xg2 <dbl>, nsxg1 <dbl>,
#   nsxg2 <dbl>, adj_score1 <dbl>, adj_score2 <dbl>
…
Data <- Data |>
  drop_na()

pl_table_2016 <- Data |>
  filter(league == "Barclays Premier League", season == "2016" | season == "2017") |>
  mutate(result = case_when(score1 > score2 ~ " Home Win",
                            score1 < score2 ~ "Home Loss",
                            score2 == score1 ~ "Draw"),
         result1 = case_when(score1 > score2 ~ 1,
                            score1 < score2 ~ 0,
                            score2 == score1 ~ 0)) |>
  group_by(importance1, importance2)
pl_table_2016

# A tibble: 724 × 25
# Groups:   importance1, importance2 [688]
   season date       league_id league    team1 team2  spi1  spi2 prob1
    <dbl> <date>         <dbl> <chr>     <chr> <chr> <dbl> <dbl> <dbl>
 1   2016 2016-08-13      2411 Barclays… Hull… Leic…  53.6  66.8 0.346
 2   2016 2016-08-13      2411 Barclays… Ever… Tott…  68.0  73.2 0.391
 3   2016 2016-08-13      2411 Barclays… Crys… West…  55.2  58.7 0.421
 4   2016 2016-08-13      2411 Barclays… Midd… Stok…  56.3  60.4 0.438
 5   2016 2016-08-13      2411 Barclays… Sout… Watf…  69.5  59.3 0.576
 6   2016 2016-08-13      2411 Barclays… Burn… Swan…  59.0  59.7 0.448
 7   2016 2016-08-13      2411 Barclays… Manc… Sund…  86.4  53.6 0.815
 8   2016 2016-08-14      2411 Barclays… AFC … Manc…  61.6  80.5 0.211
 9   2016 2016-08-14      2411 Barclays… Arse… Live…  82.6  77.4 0.555
10   2016 2016-08-15      2411 Barclays… Chel… West…  80.7  63.3 0.691
# ℹ 714 more rows
# ℹ 16 more variables: prob2 <dbl>, probtie <dbl>, proj_score1 <dbl>,
#   proj_score2 <dbl>, importance1 <dbl>, importance2 <dbl>,
#   score1 <dbl>, score2 <dbl>, xg1 <dbl>, xg2 <dbl>, nsxg1 <dbl>,
#   nsxg2 <dbl>, adj_score1 <dbl>, adj_score2 <dbl>, result <chr>,
#   result1 <dbl>
…
